{
  "ClassOfBusiness": [
    {
      "name": "Accounting",
      "code": "DC4",
      "displayName": "Accounting",
      "friendlyName": "Accounting"
    },
    {
      "name": "Actuarial services",
      "code": "DC5",
      "displayName": "Actuarial services",
      "friendlyName": "Actuarial services"
    },
    {
      "name": "Acupressure services",
      "code": "DFA",
      "displayName": "Acupressure services",
      "friendlyName": "Acupressure services"
    },
    {
      "name": "Acupuncture services",
      "code": "DFB",
      "displayName": "Acupuncture services",
      "friendlyName": "Acupuncture services"
    },
    {
      "name": "Advertising",
      "code": "DD0",
      "displayName": "Advertising",
      "friendlyName": "Advertising"
    },
    {
      "name": "Air conditioning systems installation/repair",
      "code": "DS3",
      "displayName": "Air conditioning systems installation/repair",
      "friendlyName": "Air conditioning systems installation/repair"
    },
    {
      "name": "Answering/paging services",
      "code": "DCA",
      "displayName": "Answering/paging services",
      "friendlyName": "Answering/paging services"
    },
    {
      "name": "Appliance and accessories installation/repair",
      "code": "DS4",
      "displayName": "Appliance and accessories installation/repair",
      "friendlyName": "Appliance and accessories installation/repair"
    },
    {
      "name": "Appliance/electronics store",
      "code": "DT1",
      "displayName": "Appliance/electronics store",
      "friendlyName": "Appliance/electronics store"
    },
    {
      "name": "Application development",
      "code": "DEA",
      "displayName": "Application development",
      "friendlyName": "Application development"
    },
    {
      "name": "Application service provider",
      "code": "DEB",
      "displayName": "Application service provider",
      "friendlyName": "Application service provider"
    },
    {
      "name": "Architecture",
      "code": "DDG",
      "displayName": "Architecture",
      "friendlyName": "Architecture"
    },
    {
      "name": "Art therapy",
      "code": "DFC",
      "displayName": "Art therapy",
      "friendlyName": "Art therapy"
    },
    {
      "name": "Auctioneering",
      "code": "DCB",
      "displayName": "Auctioneering",
      "friendlyName": "Auctioneering"
    },
    {
      "name": "Audiology",
      "code": "DFD",
      "displayName": "Audiology",
      "friendlyName": "Audiology"
    },
    {
      "name": "Beautician/cosmetology services",
      "code": "DFF",
      "displayName": "Beautician/cosmetology services",
      "friendlyName": "Beautician/cosmetology services"
    },
    {
      "name": "Bookkeeping",
      "code": "DCC",
      "displayName": "Bookkeeping",
      "friendlyName": "Bookkeeping"
    },
    {
      "name": "Brand consultant",
      "code": "DED",
      "displayName": "Brand consultant",
      "friendlyName": "Brand consultant"
    },
    {
      "name": "Building/construction inspection",
      "code": "DGA",
      "displayName": "Building/construction inspection",
      "friendlyName": "Building/construction inspection"
    },
    {
      "name": "Business consulting",
      "code": "DCD",
      "displayName": "Business consulting",
      "friendlyName": "Business consulting"
    },
    {
      "name": "Business manager services",
      "code": "DDR",
      "displayName": "Business manager services",
      "friendlyName": "Business manager services"
    },
    {
      "name": "Carpentry (interior only)",
      "code": "DS5",
      "displayName": "Carpentry (interior only)",
      "friendlyName": "Carpentry (interior only)"
    },
    {
      "name": "Carpet/furniture/upholstery cleaning(offsite only)",
      "code": "DS9",
      "displayName": "Carpet/furniture/upholstery cleaning(offsite only)",
      "friendlyName": "Carpet/furniture/upholstery cleaning(offsite only)"
    },
    {
      "name": "Civil engineering",
      "code": "DGB",
      "displayName": "Civil engineering",
      "friendlyName": "Civil engineering"
    },
    {
      "name": "Claims adjusting",
      "code": "DCE",
      "displayName": "Claims adjusting",
      "friendlyName": "Claims adjusting"
    },
    {
      "name": "Clock making/repair",
      "code": "DS2",
      "displayName": "Clock making/repair",
      "friendlyName": "Clock making/repair"
    },
    {
      "name": "Clothing apparel stores",
      "code": "DT2",
      "displayName": "Clothing apparel stores",
      "friendlyName": "Clothing apparel stores"
    },
    {
      "name": "Computer consulting",
      "code": "DEE",
      "displayName": "Computer consulting",
      "friendlyName": "Computer consulting"
    },
    {
      "name": "Computer programming services",
      "code": "DEF",
      "displayName": "Computer programming services",
      "friendlyName": "Computer programming services"
    },
    {
      "name": "Computer system/network developer",
      "code": "DEH",
      "displayName": "Computer system/network developer",
      "friendlyName": "Computer system/network developer"
    },
    {
      "name": "Construction/project management",
      "code": "DDH",
      "displayName": "Construction/project management",
      "friendlyName": "Construction/project management"
    },
    {
      "name": "Control systems integration/automation",
      "code": "DGC",
      "displayName": "Control systems integration/automation",
      "friendlyName": "Control systems integration/automation"
    },
    {
      "name": "Court reporting",
      "code": "DCF",
      "displayName": "Court reporting",
      "friendlyName": "Court reporting"
    },
    {
      "name": "Credit counseling",
      "code": "DC6",
      "displayName": "Credit counseling",
      "friendlyName": "Credit counseling"
    },
    {
      "name": "Dance therapy",
      "code": "DFG",
      "displayName": "Dance therapy",
      "friendlyName": "Dance therapy"
    },
    {
      "name": "Data processing",
      "code": "DEI",
      "displayName": "Data processing",
      "friendlyName": "Data processing"
    },
    {
      "name": "Database designer",
      "code": "DEJ",
      "displayName": "Database designer",
      "friendlyName": "Database designer"
    },
    {
      "name": "Dietician/nutrition",
      "code": "DFH",
      "displayName": "Dietician/nutrition",
      "friendlyName": "Dietician/nutrition"
    },
    {
      "name": "Digital marketing",
      "code": "DD6",
      "displayName": "Digital marketing",
      "friendlyName": "Digital marketing"
    },
    {
      "name": "Direct marketing",
      "code": "DCG",
      "displayName": "Direct marketing",
      "friendlyName": "Direct marketing"
    },
    {
      "name": "Document preparation",
      "code": "DCH",
      "displayName": "Document preparation",
      "friendlyName": "Document preparation"
    },
    {
      "name": "Door or window installation/repair",
      "code": "DS6",
      "displayName": "Door or window installation/repair",
      "friendlyName": "Door or window installation/repair"
    },
    {
      "name": "Draftsman (including CAD/CAM)",
      "code": "DGD",
      "displayName": "Draftsman (including CAD/CAM)",
      "friendlyName": "Draftsman (including CAD/CAM)"
    },
    {
      "name": "Drama therapy",
      "code": "DFI",
      "displayName": "Drama therapy",
      "friendlyName": "Drama therapy"
    },
    {
      "name": "Driveway or sidewalk paving/repaving",
      "code": "DSC",
      "displayName": "Driveway or sidewalk paving/repaving",
      "friendlyName": "Driveway or sidewalk paving/repaving"
    },
    {
      "name": "Drywall or wallboard installation/repair",
      "code": "DSN",
      "displayName": "Drywall or wallboard installation/repair",
      "friendlyName": "Drywall or wallboard installation/repair"
    },
    {
      "name": "Education consulting",
      "code": "DCI",
      "displayName": "Education consulting",
      "friendlyName": "Education consulting"
    },
    {
      "name": "Electrical engineering",
      "code": "DGE",
      "displayName": "Electrical engineering",
      "friendlyName": "Electrical engineering"
    },
    {
      "name": "Electrical work (interior only)",
      "code": "DSD",
      "displayName": "Electrical work (interior only)",
      "friendlyName": "Electrical work (interior only)"
    },
    {
      "name": "Engineering",
      "code": "DDJ",
      "displayName": "Engineering",
      "friendlyName": "Engineering"
    },
    {
      "name": "Environmental engineering",
      "code": "DGF",
      "displayName": "Environmental engineering",
      "friendlyName": "Environmental engineering"
    },
    {
      "name": "Esthetician services",
      "code": "DFJ",
      "displayName": "Esthetician services",
      "friendlyName": "Esthetician services"
    },
    {
      "name": "Event planning/promotion",
      "code": "DCJ",
      "displayName": "Event planning/promotion",
      "friendlyName": "Event planning/promotion"
    },
    {
      "name": "Executive placement",
      "code": "DDY",
      "displayName": "Executive placement",
      "friendlyName": "Executive placement"
    },
    {
      "name": "Expert witness services",
      "code": "DCK",
      "displayName": "Expert witness services",
      "friendlyName": "Expert witness services"
    },
    {
      "name": "Exterior cleaning services",
      "code": "DSB",
      "displayName": "Exterior cleaning services",
      "friendlyName": "Exterior cleaning services"
    },
    {
      "name": "Fence installation/repair",
      "code": "DSE",
      "displayName": "Fence installation/repair",
      "friendlyName": "Fence installation/repair"
    },
    {
      "name": "First aid and CPR training",
      "code": "DFK",
      "displayName": "First aid and CPR training",
      "friendlyName": "First aid and CPR training"
    },
    {
      "name": "Floor covering installation (no ceramic tile/stone)",
      "code": "DSF",
      "displayName": "Floor covering installation (no ceramic tile/stone)",
      "friendlyName": "Floor covering installation (no ceramic tile/stone)"
    },
    {
      "name": "Florist",
      "code": "DT3",
      "displayName": "Florist",
      "friendlyName": "Florist"
    },
    {
      "name": "Glass installation/repair (no auto work)",
      "code": "DS7",
      "displayName": "Glass installation/repair (no auto work)",
      "friendlyName": "Glass installation/repair (no auto work)"
    },
    {
      "name": "Graphic design",
      "code": "DCL",
      "displayName": "Graphic design",
      "friendlyName": "Graphic design"
    },
    {
      "name": "Hair stylist/barber services",
      "code": "DFE",
      "displayName": "Hair stylist/barber services",
      "friendlyName": "Hair stylist/barber services"
    },
    {
      "name": "Handyperson (no roof work)",
      "code": "DSG",
      "displayName": "Handyperson (no roof work)",
      "friendlyName": "Handyperson (no roof work)"
    },
    {
      "name": "Heating/air conditioning install/repair(no LPG)",
      "code": "DSH",
      "displayName": "Heating/air conditioning install/repair(no LPG)",
      "friendlyName": "Heating/air conditioning install/repair(no LPG)"
    },
    {
      "name": "Home furnishing stores",
      "code": "DT4",
      "displayName": "Home furnishing stores",
      "friendlyName": "Home furnishing stores"
    },
    {
      "name": "Human Resources (HR) consulting",
      "code": "DCM",
      "displayName": "Human Resources (HR) consulting",
      "friendlyName": "Human Resources (HR) consulting"
    },
    {
      "name": "Hypnosis",
      "code": "DFL",
      "displayName": "Hypnosis",
      "friendlyName": "Hypnosis"
    },
    {
      "name": "Industrial engineering",
      "code": "DGG",
      "displayName": "Industrial engineering",
      "friendlyName": "Industrial engineering"
    },
    {
      "name": "Insurance agents",
      "code": "DDL",
      "displayName": "Insurance agent",
      "friendlyName": "Insurance agent"
    },
    {
      "name": "Interior design",
      "code": "DDE",
      "displayName": "Interior design",
      "friendlyName": "Interior design"
    },
    {
      "name": "Interior finishing work",
      "code": "DS8",
      "displayName": "Interior finishing work",
      "friendlyName": "Interior finishing work"
    },
    {
      "name": "Investment advice",
      "code": "DC9",
      "displayName": "Investment advice",
      "friendlyName": "Investment advice"
    },
    {
      "name": "IT consulting",
      "code": "DCN",
      "displayName": "IT consulting",
      "friendlyName": "IT consulting"
    },
    {
      "name": "IT project management",
      "code": "DES",
      "displayName": "IT project management",
      "friendlyName": "IT project management"
    },
    {
      "name": "IT software/hardware training services",
      "code": "DET",
      "displayName": "IT software/hardware training services",
      "friendlyName": "IT software/hardware training services"
    },
    {
      "name": "Janitorial/cleaning services",
      "code": "DSI",
      "displayName": "Janitorial/cleaning services",
      "friendlyName": "Janitorial/cleaning services"
    },
    {
      "name": "Jewelry Stores",
      "code": "DT5",
      "displayName": "Jewelry stores",
      "friendlyName": "Jewelry stores"
    },
    {
      "name": "Landscape architect",
      "code": "DGH",
      "displayName": "Landscape architect",
      "friendlyName": "Landscape architect"
    },
    {
      "name": "Landscaping/gardening services",
      "code": "DSJ",
      "displayName": "Landscaping/gardening services",
      "friendlyName": "Landscaping/gardening services"
    },
    {
      "name": "Lawn care services",
      "code": "DSK",
      "displayName": "Lawn care services",
      "friendlyName": "Lawn care services"
    },
    {
      "name": "Legal services",
      "code": "DC0",
      "displayName": "Legal services",
      "friendlyName": "Legal services"
    },
    {
      "name": "Life/career/executive coaching",
      "code": "DCO",
      "displayName": "Life/career/executive coaching",
      "friendlyName": "Life/career/executive coaching"
    },
    {
      "name": "Locksmiths",
      "code": "DS1",
      "displayName": "Locksmiths",
      "friendlyName": "Locksmiths"
    },
    {
      "name": "Management consulting",
      "code": "DDT",
      "displayName": "Management consulting",
      "friendlyName": "Management consulting"
    },
    {
      "name": "Market research",
      "code": "DEM",
      "displayName": "Market research",
      "friendlyName": "Market research"
    },
    {
      "name": "Marketing/media consulting",
      "code": "DCQ",
      "displayName": "Marketing/media consulting",
      "friendlyName": "Marketing/media consulting"
    },
    {
      "name": "Marriage and family therapy",
      "code": "DFM",
      "displayName": "Marriage and family therapy",
      "friendlyName": "Marriage and family therapy"
    },
    {
      "name": "Masonry work",
      "code": "DSL",
      "displayName": "Masonry work",
      "friendlyName": "Masonry work"
    },
    {
      "name": "Massage therapy",
      "code": "DFN",
      "displayName": "Massage therapy",
      "friendlyName": "Massage therapy"
    },
    {
      "name": "Medical billing",
      "code": "DCR",
      "displayName": "Medical billing",
      "friendlyName": "Medical billing"
    },
    {
      "name": "Mental health counseling",
      "code": "DFO",
      "displayName": "Mental health counseling",
      "friendlyName": "Mental health counseling"
    },
    {
      "name": "Mortgage brokering/banking",
      "code": "DDA",
      "displayName": "Mortgage brokering/banking",
      "friendlyName": "Mortgage brokering/banking"
    },
    {
      "name": "Music therapy",
      "code": "DFP",
      "displayName": "Music therapy",
      "friendlyName": "Music therapy"
    },
    {
      "name": "Nail technician services",
      "code": "DFQ",
      "displayName": "Nail technician services",
      "friendlyName": "Nail technician services"
    },
    {
      "name": "Notary services",
      "code": "DCS",
      "displayName": "Notary services",
      "friendlyName": "Notary services"
    },
    {
      "name": "Occupational therapy",
      "code": "DFR",
      "displayName": "Occupational therapy",
      "friendlyName": "Occupational therapy"
    },
    {
      "name": "Other consulting services",
      "code": "DHL",
      "displayName": "Other consulting services",
      "friendlyName": "Other consulting services"
    },
    {
      "name": "Other marketing/PR services",
      "code": "DD7",
      "displayName": "Other marketing/PR services",
      "friendlyName": "Other marketing/PR services"
    },
    {
      "name": "Other stores (no food/drink)",
      "code": "DT6",
      "displayName": "Other stores (without food/drinks)",
      "friendlyName": "Other stores (without food/drinks)"
    },
    {
      "name": "Other stores (with food/drinks)",
      "code": "DT7",
      "displayName": "Other stores (with food/drinks)",
      "friendlyName": "Other stores (with food/drinks)"
    },
    {
      "name": "Other technology services",
      "code": "DEU",
      "displayName": "Other technology services",
      "friendlyName": "Other technology services"
    },
    {
      "name": "Painting (interior only)",
      "code": "DSM",
      "displayName": "Painting (interior only)",
      "friendlyName": "Painting (interior only)"
    },
    {
      "name": "Personal concierge/assistant",
      "code": "DCT",
      "displayName": "Personal concierge/assistant",
      "friendlyName": "Personal concierge/assistant"
    },
    {
      "name": "Personal training (health and fitness)",
      "code": "DFS",
      "displayName": "Personal training (health and fitness)",
      "friendlyName": "Personal training (health and fitness)"
    },
    {
      "name": "Photography",
      "code": "DCU",
      "displayName": "Photography",
      "friendlyName": "Photography"
    },
    {
      "name": "Plastering or stucco work",
      "code": "DSO",
      "displayName": "Plastering or stucco work",
      "friendlyName": "Plastering or stucco work"
    },
    {
      "name": "Plumbing (commercial/industrial)",
      "code": "DSP",
      "displayName": "Plumbing (commercial/industrial)",
      "friendlyName": "Plumbing (commercial/industrial)"
    },
    {
      "name": "Plumbing (residential/domestic)",
      "code": "DSQ",
      "displayName": "Plumbing (residential/domestic)",
      "friendlyName": "Plumbing (residential/domestic)"
    },
    {
      "name": "Process engineering",
      "code": "DGI",
      "displayName": "Process engineering",
      "friendlyName": "Process engineering"
    },
    {
      "name": "Process server",
      "code": "DCV",
      "displayName": "Process server",
      "friendlyName": "Process server"
    },
    {
      "name": "Project management",
      "code": "DEO",
      "displayName": "Project management",
      "friendlyName": "Project management"
    },
    {
      "name": "Property management",
      "code": "DDO",
      "displayName": "Property management",
      "friendlyName": "Property management"
    },
    {
      "name": "Psychology",
      "code": "DFT",
      "displayName": "Psychology",
      "friendlyName": "Psychology"
    },
    {
      "name": "Public relations",
      "code": "DCW",
      "displayName": "Public relations",
      "friendlyName": "Public relations"
    },
    {
      "name": "Real estate agent/broker",
      "code": "DDP",
      "displayName": "Real estate agent/broker",
      "friendlyName": "Real estate agent/broker"
    },
    {
      "name": "Recruiting (employment placements)",
      "code": "DCX",
      "displayName": "Recruiting (employment placements)",
      "friendlyName": "Recruiting (employment placements)"
    },
    {
      "name": "Research consulting",
      "code": "DCY",
      "displayName": "Research consulting",
      "friendlyName": "Research consulting"
    },
    {
      "name": "Resume consulting",
      "code": "DDU",
      "displayName": "Resume consulting",
      "friendlyName": "Resume consulting"
    },
    {
      "name": "Search engine services (SEO/SEM)",
      "code": "DEV",
      "displayName": "Search engine services (SEO/SEM)",
      "friendlyName": "Search engine services (SEO/SEM)"
    },
    {
      "name": "Sign painting/lettering (exterior only)",
      "code": "DSS",
      "displayName": "Sign painting/lettering (exterior only)",
      "friendlyName": "Sign painting/lettering (exterior only)"
    },
    {
      "name": "Sign painting/lettering (interior only)",
      "code": "DSR",
      "displayName": "Sign painting/lettering (interior only)",
      "friendlyName": "Sign painting/lettering (interior only)"
    },
    {
      "name": "Snow blowing and removal",
      "code": "DT8",
      "displayName": "Snow blowing and removal",
      "friendlyName": "Snow blowing and removal"
    },
    {
      "name": "Social media consultant",
      "code": "DD5",
      "displayName": "Social media consultant",
      "friendlyName": "Social media consultant"
    },
    {
      "name": "Social work services",
      "code": "DFU",
      "displayName": "Social work services",
      "friendlyName": "Social work services"
    },
    {
      "name": "Software development",
      "code": "DEG",
      "displayName": "Software development",
      "friendlyName": "Software development"
    },
    {
      "name": "Speech therapy",
      "code": "DFV",
      "displayName": "Speech therapy",
      "friendlyName": "Speech therapy"
    },
    {
      "name": "Stock brokering",
      "code": "DDB",
      "displayName": "Stock brokering",
      "friendlyName": "Stock brokering"
    },
    {
      "name": "Strategy consultant",
      "code": "DEP",
      "displayName": "Strategy consultant",
      "friendlyName": "Strategy consultant"
    },
    {
      "name": "Substance abuse counseling",
      "code": "DFW",
      "displayName": "Substance abuse counseling",
      "friendlyName": "Substance abuse counseling"
    },
    {
      "name": "Talent agency",
      "code": "DCZ",
      "displayName": "Talent agency",
      "friendlyName": "Talent agency"
    },
    {
      "name": "Tax preparation",
      "code": "DDS",
      "displayName": "Tax preparation",
      "friendlyName": "Tax preparation"
    },
    {
      "name": "Technology services",
      "code": "DDV",
      "displayName": "Technology services",
      "friendlyName": "Technology services"
    },
    {
      "name": "Tile/stone/marble/mosaic/terrazzo work(int. only)",
      "code": "DST",
      "displayName": "Tile/stone/marble/mosaic/terrazzo work(int. only)",
      "friendlyName": "Tile/stone/marble/mosaic/terrazzo work(int. only)"
    },
    {
      "name": "Training (business, vocational or life skills)",
      "code": "DC1",
      "displayName": "Training (business, vocational or life skills)",
      "friendlyName": "Training (business, vocational or life skills)"
    },
    {
      "name": "Translating/interpreting",
      "code": "DC2",
      "displayName": "Translating/interpreting",
      "friendlyName": "Translating/interpreting"
    },
    {
      "name": "Transportation engineering",
      "code": "DGJ",
      "displayName": "Transportation engineering",
      "friendlyName": "Transportation engineering"
    },
    {
      "name": "Travel agency",
      "code": "DC3",
      "displayName": "Travel agency",
      "friendlyName": "Travel agency"
    },
    {
      "name": "Trustee services",
      "code": "DDD",
      "displayName": "Trustee",
      "friendlyName": "Trustee"
    },
    {
      "name": "Tutoring",
      "code": "DDW",
      "displayName": "Tutoring",
      "friendlyName": "Tutoring"
    },
    {
      "name": "Upholstery work",
      "code": "DSA",
      "displayName": "Upholstery work",
      "friendlyName": "Upholstery work"
    },
    {
      "name": "Value added reseller of computer hardware",
      "code": "DEQ",
      "displayName": "Value added reseller of computer hardware",
      "friendlyName": "Value added reseller of computer hardware"
    },
    {
      "name": "Website design",
      "code": "DER",
      "displayName": "Website design",
      "friendlyName": "Website design"
    },
    {
      "name": "Window cleaning (nothing above 15 feet)",
      "code": "DSU",
      "displayName": "Window cleaning (nothing above 15 feet)",
      "friendlyName": "Window cleaning (nothing above 15 feet)"
    },
    {
      "name": "Yoga/pilates instruction",
      "code": "DFY",
      "displayName": "Yoga/pilates instruction",
      "friendlyName": "Yoga/pilates instruction"
    }
  ]
}
